{
	"patterns" : [
		{
			"pattern" : "/selfservice/*",
			"isPublic" : true
		},
		{
			"pattern" : "/webconsole-am/*",
			"isPublic" : true
		},
		{
			"pattern" : "/webconsole-idm/*",
			"isPublic" : true
		},
		{
			"pattern" : "/webconsole/*",
			"isPublic" : true
		},
		{
			"pattern" : "/selfservice/selfRegistration.html",
			"isPublic" : true,
			"groupingXrefs" : [
				{
					"id" : {
						"groupingId" : "NONE"
					}
				}
			]
		},
		{
			"pattern" : "/openiam-ui-static/*",
			"isPublic" : true,
			"groupingXrefs" : [
				{
					"id" : {
						"groupingId" : "NONE"
					}
				}
			]
		},
		{
			"pattern" : "/idp/changePassword.html",
			"isPublic" : true,
			"groupingXrefs" : [
				{
					"id" : {
						"groupingId" : "NONE"
					}
				}
			]
		},
		{
			"pattern" : "/idp/unlockPassword.html",
			"isPublic" : true,
			"groupingXrefs" : [
				{
					"id" : {
						"groupingId" : "NONE"
					}
				}
			]
		},
		{
			"pattern" : "/idp/logout.html",
			"isPublic" : true,
			"groupingXrefs" : [
				{
					"id" : {
						"groupingId" : "NONE"
					}
				}
			]
		},
		{
			"pattern" : "/idp/unlockPasswordQuestions.html",
			"isPublic" : true,
			"groupingXrefs" : [
				{
					"id" : {
						"groupingId" : "NONE"
					}
				}
			]
		},
		{
			"pattern" : "/idp/unlockUserResetPasswordForm.html",
			"isPublic" : true,
			"groupingXrefs" : [
				{
					"id" : {
						"groupingId" : "NONE"
					}
				}
			]
		},
		{
		  "pattern" : "/idp/activate.html",
		  "isPublic" : true,
		  "groupingXrefs" : [
			{
			  "id" : {
				"groupingId" : "NONE"
			  }
			}
		  ]
		},
		{
			"pattern" : "/webconsole/clearContext.html",
			"isPublic" : true,
			"groupingXrefs" : [
				{
					"id" : {
						"groupingId" : "NONE"
					}
				}
			]
		},
		{
			"pattern" : "/webconsole-am/clearContext.html",
			"isPublic" : true,
			"groupingXrefs" : [
				{
					"id" : {
						"groupingId" : "NONE"
					}
				}
			]
		},
		{
			"pattern" : "/webconsole-idm/clearContext.html",
			"isPublic" : true,
			"groupingXrefs" : [
				{
					"id" : {
						"groupingId" : "NONE"
					}
				}
			]
		},
		{
			"pattern" : "/selfservice/clearContext.html",
			"isPublic" : true,
			"groupingXrefs" : [
				{
					"id" : {
						"groupingId" : "NONE"
					}
				}
			]
		},
		{
			"pattern" : "/selfservice-ext/clearContext.html",
			"isPublic" : true,
			"groupingXrefs" : [
				{
					"id" : {
						"groupingId" : "NONE"
					}
				}
			]
		},
		{
			"pattern" : "/selfservice/rest/api/entitlements/searchOrganizations",
			"isPublic" : true,
			"groupingXrefs" : [
				{
					"id" : {
						"groupingId" : "NONE"
					}
				}
			]
		},
		{
			"pattern" : "/reportviewer/*",
			"isPublic" : true,
			"groupingXrefs" : [
				{
					"id" : {
						"groupingId" : "NONE"
					}
				}
			]
		},
		{
			"pattern" : "/selfservice/language/languageSupport.html",
			"isPublic" : true,
			"groupingXrefs" : [
				{
					"id" : {
						"groupingId" : "NONE"
					}
				}
			]
		},
		{
			"pattern" : "/selfservice/rest/api/metadata/roleMetadata",
			"isPublic" : true,
			"groupingXrefs" : [
				{
					"id" : {
						"groupingId" : "NONE"
					}
				}
			]
		},
		{
			"pattern" : "/selfservice/rest/api/entitlements/searchRoles",
			"isPublic" : true,
			"groupingXrefs" : [
				{
					"id" : {
						"groupingId" : "NONE"
					}
				}
			]
		},
		{
			"pattern" : "/selfservice/rest/api/metadata/groupMetadata",
			"isPublic" : true,
			"groupingXrefs" : [
				{
					"id" : {
						"groupingId" : "NONE"
					}
				}
			]
		},
		{
			"pattern" : "/selfservice/rest/api/entitlements/searchGroups",
			"isPublic" : true,
			"groupingXrefs" : [
				{
					"id" : {
						"groupingId" : "NONE"
					}
				}
			]
		},
		{
			"pattern" : "/selfservice/rest/api/metadata/organizationMetadata",
			"isPublic" : true,
			"groupingXrefs" : [
				{
					"id" : {
						"groupingId" : "NONE"
					}
				}
			]
		},
	    {
	  	  "pattern" : "/idp/saml2/sp/*",
		  "ignoreXSS" : true,
		  "isPublic" : true,
		  "groupingXrefs" : [
		    {
			  "id" : {
			    "groupingId" : "NONE"
			  }
		    }
		  ],
		  "cacheable" : false
	    },
	    {
		  "pattern" : "/idp/saml2/idp/*",
		  "ignoreXSS" : true,
		  "isPublic" : true,
		  "groupingXrefs" : [
		    {
			  "id" : {
			    "groupingId" : "NONE"
			  }
		    }
		  ]
	    },
		{
			"pattern" : "/idp/rest/api/password/validation/*",
			"isPublic" : true,
			"groupingXrefs" : [
				{
					"id" : {
						"groupingId" : "NONE"
					}
				}
			]
		},
		{
			"pattern" : "/selfservice/editGroup.html",
			"isPublic" : true,
			"groupingXrefs" : [
				{
					"id" : {
						"groupingId" : "PASSWORD_AUTH"
					}
				}
			]
		},
		{
			"pattern" : "/webconsole/editGroup.html",
			"isPublic" : true,
			"groupingXrefs" : [
				{
					"id" : {
						"groupingId" : "PASSWORD_AUTH"
					}
				}
			]
		},
		{
			"pattern" : "/idp/forgetPasswordOptions.html",
			"isPublic" : true,
			"groupingXrefs" : [
				{
					"id" : {
						"groupingId" : "NONE"
					}
				}
			]
		},
		{
			"pattern" : "/idp/validateSmsToken.html",
			"isPublic" : true,
			"groupingXrefs" : [
				{
					"id" : {
						"groupingId" : "NONE"
					}
				}
			]
		},
		{
			"pattern" : "/idp/sendSmsToken.html",
			"isPublic" : true,
			"groupingXrefs" : [
				{
					"id" : {
						"groupingId" : "NONE"
					}
				}
			]
		},
		{
			"pattern" : "/idp/smsToken.html",
			"isPublic" : true,
			"groupingXrefs" : [
				{
					"id" : {
						"groupingId" : "NONE"
					}
				}
			]
		},
		{
			"pattern" : "/idp/userByLogin.html",
			"isPublic" : true,
			"groupingXrefs" : [
				{
					"id" : {
						"groupingId" : "NONE"
					}
				}
			]
		},
		{
			"pattern" : "/webconsole/rest/api/prov/syncPasswordFromSrc",
			"isPublic" : true,
			"groupingXrefs" : [
				{
					"id" : {
						"groupingId" : "NONE"
					}
				}
			]
		}
	]
}